<svg xmlns="http://www.w3.org/2000/svg" width="500" height="350" viewBox="0 0 500 350">
  <defs>
    <style>
      .a {
        fill: #2d2a2b;
      }

      .a, .b, .c, .d, .e, .f, .g, .h, .i, .j, .k {
        stroke: #f16522;
        stroke-miterlimit: 10;
        stroke-width: 4px;
      }

      .b, .c, .d, .e, .f, .g, .h, .i, .j, .k {
        fill: none;
      }

      .c {
        stroke-dasharray: 2 2 2 2;
      }

      .d {
        stroke-dasharray: 2 2 2 2 2 2;
      }

      .e {
        stroke-dasharray: 1.98 1.98 1.98 1.98;
      }

      .f {
        stroke-dasharray: 1.98 1.98 1.98 1.98 1.98 1.98;
      }

      .g {
        stroke-dasharray: 1.99 1.99 1.99 1.99;
      }

      .h {
        stroke-dasharray: 1.99 1.99 1.99 1.99 1.99 1.99;
      }

      .i {
        stroke-dasharray: 2.06 2.06 2.06 2.06;
      }

      .j {
        stroke-dasharray: 2.06 2.06 2.06 2.06 2.06 2.06;
      }

      .k {
        fill-rule: evenodd;
      }
    </style>
  </defs>
  <title>Maya</title>
  <g>
    <path class="a" d="M147.57,126.93c0,42.19-.14,80.8.23,119.4,0,3.64,2.32,9,5.2,10.59,29.92,16.51,60.18,32.41,93.09,49.94,0-44.83.26-85.92-.4-127-.06-4.07-4.94-9.82-9-11.79C208.46,154.49,179.86,141.71,147.57,126.93Z"/>
    <g>
      <path class="b" d="M352.42,127.85v-1l-.91.42"/>
      <path class="c" d="M349.69,128.11,343.33,131"/>
      <path class="d" d="M342.42,131.45C313.69,144.6,287.56,156.3,262,169.09c-4.32,2.15-7.62,10.54-7.77,16.14-.77,28.92-.35,57.88-.35,86.82,0,10.09,0,20.18,0,32.95"/>
      <path class="b" d="M253.85,306v1l.88-.47"/>
      <path class="e" d="M256.47,305.6l6.11-3.25"/>
      <path class="f" d="M263.45,301.88c29.2-15.54,55.65-29.49,81.78-44,3.44-1.9,6.83-7.47,6.88-11.38.5-38,.31-76.06.31-117.67"/>
    </g>
    <g>
      <path class="b" d="M152.86,119.62l-.93.36.91.42"/>
      <path class="g" d="M154.65,121.24l6.33,2.93"/>
      <path class="h" d="M161.89,124.59c29.7,13.76,56.74,26.33,83.89,38.64a11.78,11.78,0,0,0,8.68-.09c29.59-13.44,59.06-27.17,91.82-42.34"/>
      <path class="b" d="M347.18,120.38l.91-.42-.93-.37"/>
      <path class="i" d="M345.24,118.85l-6.71-2.63"/>
      <path class="j" d="M337.57,115.85c-29.26-11.45-55.79-21.88-82.43-32a16.07,16.07,0,0,0-10.54.08c-29.13,11.1-58.14,22.54-90.78,35.31"/>
    </g>
    <path class="k" d="M352.42,126.85c0,42.39.2,81-.31,119.66-.05,3.91-3.44,9.48-6.88,11.38-29,16.07-58.32,31.47-91.38,49.11,0-13.72,0-24.34,0-34.95,0-28.94-.42-57.9.35-86.82.15-5.6,3.45-14,7.77-16.14C290.5,154.83,319.69,141.93,352.42,126.85Z"/>
    <path class="k" d="M151.93,120c33.41-13.07,63-24.74,92.67-36a16.07,16.07,0,0,1,10.54-.08c29.8,11.32,59.45,23,92.95,36.11-33.49,15.5-63.49,29.49-93.63,43.18a11.78,11.78,0,0,1-8.68.09C215.63,149.56,185.61,135.57,151.93,120Z"/>
  </g>
</svg>
