<svg xmlns="http://www.w3.org/2000/svg" width="500" height="350" viewBox="0 0 500 350">
  <defs>
    <style>
      .a, .c, .d {
        fill: none;
        stroke: #f16522;
        stroke-miterlimit: 10;
        stroke-width: 4px;
      }

      .b {
        fill: #2d2a2b;
      }

      .c {
        stroke-dasharray: 6.47 6.47 6.47 6.47;
      }

      .d {
        stroke-dasharray: 6.47 6.47 6.47 6.47 6.47 6.47;
      }
    </style>
  </defs>
  <title>Timelapse</title>
  <g>
    <path class="a" d="M250.55,74a114,114,0,1,0,114,114A114,114,0,0,0,250.55,74Zm5,210.78c-1.67.07-3.32.12-5,.12s-3.32,0-5-.12a96.9,96.9,0,0,1,5-193.68"/>
    <path class="a" d="M347.45,190.43c0,51.83-40.72,91.9-91.9,94.35-1.67.07-3.32.12-5,.12s-3.32,0-5-.12a96.9,96.9,0,0,1,5-193.68"/>
    <path class="b" d="M250.55,75.78v31.14A81.09,81.09,0,0,0,169.47,188H138.33A112.22,112.22,0,0,1,250.55,75.78Z"/>
    <polyline class="a" points="250.55 74 250.55 188 136.55 188"/>
    <g>
      <path class="a" d="M347.57,190.43s.07-1.26,0-3.5"/>
      <path class="c" d="M347.22,180.48a110.19,110.19,0,0,0-4.36-22.17"/>
      <path class="d" d="M341.87,155.24c-8.71-25.61-30.48-57.24-84.64-65.77"/>
      <path class="a" d="M254,89l-3.48-.44"/>
    </g>
  </g>
</svg>
