<svg width="200px" height="200px" xmlns="http://www.w3.org/2000/svg" viewBox="0 0 100 100" preserveAspectRatio="xMidYMid" class="lds-eclipse" style="animation-play-state: running; animation-delay: 0s; background-image: none; background-position: initial initial; background-repeat: initial initial;">
    <path ng-attr-d="{{config.pathCmd}}" ng-attr-fill="{{config.color}}" stroke="none" d="M10 50A40 40 0 0 0 90 50A40 42 0 0 1 10 50" fill="#ea6429" style="animation-play-state: running; animation-delay: 0s;">
      <animateTransform attributeName="transform" type="rotate" calcMode="linear" values="0 50 51;360 50 51" keyTimes="0;1" dur="1s" begin="0s" repeatCount="indefinite" style="animation-play-state: running; animation-delay: 0s;"></animateTransform>
    </path>
  </svg>